Tidying, Visualising and Summarising Data
…
dplyr: filter()

# 표본 크기(samplesize)가 2000보다 큰 행만 선택, 츨력
polls_us_election_2016 %>%
  filter(samplesize > 2000)

# A tibble: 403 × 15
   state      startdate  enddate    pollster         grade samplesize population
   <fct>      <date>     <date>     <fct>            <fct>      <int> <chr>     
 1 U.S.       2016-11-03 2016-11-06 ABC News/Washin… A+          2220 lv        
 2 U.S.       2016-11-01 2016-11-07 Google Consumer… B          26574 lv        
 3 U.S.       2016-11-02 2016-11-06 Ipsos            A-          2195 lv        
 4 U.S.       2016-11-04 2016-11-07 YouGov           B           3677 lv        
 5 U.S.       2016-11-03 2016-11-06 Gravis Marketing B-         16639 rv        
 6 New Mexico 2016-11-06 2016-11-06 Zia Poll         <NA>        8439 lv        
 7 U.S.       2016-11-05 2016-11-07 The Times-Picay… <NA>        2521 lv        
 8 U.S.       2016-11-01 2016-11-07 USC Dornsife/LA… <NA>        2972 lv        
 9 Georgia    2016-11-03 2016-11-06 Gravis Marketing B-          2002 rv        
10 Virginia   2016-11-01 2016-11-02 Remington        <NA>        3076 lv        
# ℹ 393 more rows
# ℹ 8 more variables: rawpoll_clinton <dbl>, rawpoll_trump <dbl>,
#   rawpoll_johnson <dbl>, rawpoll_mcmullin <dbl>, adjpoll_clinton <dbl>,
#   adjpoll_trump <dbl>, adjpoll_johnson <dbl>, adjpoll_mcmullin <dbl>
…
명령어 연결하기

polls_us_election_2016

# A tibble: 4,208 × 15
   state      startdate  enddate    pollster         grade samplesize population
   <fct>      <date>     <date>     <fct>            <fct>      <int> <chr>     
 1 U.S.       2016-11-03 2016-11-06 ABC News/Washin… A+          2220 lv        
 2 U.S.       2016-11-01 2016-11-07 Google Consumer… B          26574 lv        
 3 U.S.       2016-11-02 2016-11-06 Ipsos            A-          2195 lv        
 4 U.S.       2016-11-04 2016-11-07 YouGov           B           3677 lv        
 5 U.S.       2016-11-03 2016-11-06 Gravis Marketing B-         16639 rv        
 6 U.S.       2016-11-03 2016-11-06 Fox News/Anders… A           1295 lv        
 7 U.S.       2016-11-02 2016-11-06 CBS News/New Yo… A-          1426 lv        
 8 U.S.       2016-11-03 2016-11-05 NBC News/Wall S… A-          1282 lv        
 9 New Mexico 2016-11-06 2016-11-06 Zia Poll         <NA>        8439 lv        
10 U.S.       2016-11-04 2016-11-07 IBD/TIPP         A-          1107 lv        
# ℹ 4,198 more rows
# ℹ 8 more variables: rawpoll_clinton <dbl>, rawpoll_trump <dbl>,
#   rawpoll_johnson <dbl>, rawpoll_mcmullin <dbl>, adjpoll_clinton <dbl>,
#   adjpoll_trump <dbl>, adjpoll_johnson <dbl>, adjpoll_mcmullin <dbl>

명령어 연결하기

polls_us_election_2016 %>%
    mutate(trump_clinton_diff = 
             rawpoll_trump - 
             rawpoll_clinton) 

# A tibble: 4,208 × 16
   state      startdate  enddate    pollster         grade samplesize population
   <fct>      <date>     <date>     <fct>            <fct>      <int> <chr>     
 1 U.S.       2016-11-03 2016-11-06 ABC News/Washin… A+          2220 lv        
 2 U.S.       2016-11-01 2016-11-07 Google Consumer… B          26574 lv        
 3 U.S.       2016-11-02 2016-11-06 Ipsos            A-          2195 lv        
 4 U.S.       2016-11-04 2016-11-07 YouGov           B           3677 lv        
 5 U.S.       2016-11-03 2016-11-06 Gravis Marketing B-         16639 rv        
 6 U.S.       2016-11-03 2016-11-06 Fox News/Anders… A           1295 lv        
 7 U.S.       2016-11-02 2016-11-06 CBS News/New Yo… A-          1426 lv        
 8 U.S.       2016-11-03 2016-11-05 NBC News/Wall S… A-          1282 lv        
 9 New Mexico 2016-11-06 2016-11-06 Zia Poll         <NA>        8439 lv        
10 U.S.       2016-11-04 2016-11-07 IBD/TIPP         A-          1107 lv        
# ℹ 4,198 more rows
# ℹ 9 more variables: rawpoll_clinton <dbl>, rawpoll_trump <dbl>,
#   rawpoll_johnson <dbl>, rawpoll_mcmullin <dbl>, adjpoll_clinton <dbl>,
#   adjpoll_trump <dbl>, adjpoll_johnson <dbl>, adjpoll_mcmullin <dbl>,
#   trump_clinton_diff <dbl>
…
(Y)Our first plot!

gapminder_mean

# A tibble: 285 × 3
# Groups:   continent [5]
   continent  year mean_pop
   <fct>     <int>    <dbl>
 1 Africa     1960 5464985.
 2 Africa     1961 5598112.
 3 Africa     1962 5736073.
 4 Africa     1963 5878867.
 5 Africa     1964 6026474.
 6 Africa     1965 6178906.
 7 Africa     1966 6336258.
 8 Africa     1967 6498656.
 9 Africa     1968 6666202.
10 Africa     1969 6839011.
# ℹ 275 more rows
…
