FMB819: R을 이용한 데이터분석
…
초록색 파스타 비율은 0.46! 이것은 전체 그릇 내 초록색 파스타 비율의 추정치(estimate)임. 한 번 더 해보면 어떨까?

만약 여러 번, 예를 들어 33번 시도하면 어떻게 될까?

가상 삽을 33번 사용하기

33개의 크기 50인 표본을 생성.

virtual_samples <- bowl %>%
  # 크기 50인 표본을 33개 추출
  rep_sample_n(size = 50, reps = 33)
virtual_samples

# A tibble: 1,650 × 3
# Groups:   replicate [33]
   replicate pasta_ID color 
       <int>    <int> <chr> 
 1         1      495 yellow
 2         1      534 green 
 3         1      297 yellow
 4         1      208 green 
 5         1      131 green 
 6         1      569 red   
 7         1      522 yellow
 8         1      248 green 
 9         1      365 red   
10         1      665 yellow
# ℹ 1,640 more rows

각 표본에서 초록색 파스타의 비율을 계산.

virtual_prop_green <- virtual_samples %>% 
  group_by(replicate) %>% # 각 표본별로 계산
  summarize(
    num_green = sum(color == "green"),
    sample_n = n()) %>% 
  mutate(prop_green = num_green / sample_n)
virtual_prop_green

# A tibble: 33 × 4
   replicate num_green sample_n prop_green
       <int>     <int>    <int>      <dbl>
 1         1        24       50       0.48
 2         2        25       50       0.5 
 3         3        27       50       0.54
 4         4        23       50       0.46
 5         5        25       50       0.5 
 6         6        22       50       0.44
 7         7        18       50       0.36
 8         8        30       50       0.6 
 9         9        29       50       0.58
10        10        18       50       0.36
# ℹ 23 more rows
…
